rseminar
…
library(exscidata)
library(dplyr)

remotes::install_github("dhammarstrom/exscidata")

Skipping install of 'exscidata' from a github remote, the SHA1 (f70efb3a) has not changed since last install.
  Use `force = TRUE` to force installation

dxadata <- data.frame(lean.mass = rnorm(100, 6000, 100))

## Base R forward pipe operator

exscidata::dxadata |> select(participant)

# A tibble: 80 × 1
   participant
   <chr>      
 1 FP28       
 2 FP40       
 3 FP21       
 4 FP34       
 5 FP23       
 6 FP26       
 7 FP36       
 8 FP38       
 9 FP25       
10 FP19       
# ℹ 70 more rows
…
## variablen finden in tidy select
exscidata::dxadata |>
  select(participant:weight, starts_with("lean.") & contains("_leg"))

# A tibble: 80 × 11
   participant time  multiple single sex    include   age height weight
   <chr>       <chr> <chr>    <chr>  <chr>  <chr>   <dbl>  <dbl>  <dbl>
 1 FP28        pre   L        R      female incl     24.5   170    66.5
 2 FP40        pre   R        L      female incl     22.1   175    64  
 3 FP21        pre   R        L      male   incl     26.8   184    85  
 4 FP34        pre   R        L      female incl     23.1   164    53  
 5 FP23        pre   R        L      male   incl     24.8   176.   68.5
 6 FP26        pre   R        L      female excl     24.2   163    56  
 7 FP36        pre   L        R      female incl     20.5   158    60.5
 8 FP38        pre   R        L      female incl     20.6   181    83.5
 9 FP25        pre   R        L      male   incl     37.4   183    65  
10 FP19        pre   L        R      male   incl     22.3   178.   73.5
# ℹ 70 more rows
# ℹ 2 more variables: lean.left_leg <dbl>, lean.right_leg <dbl>

exscidata::dxadata |>
  select(weight, fp = participant)

# A tibble: 80 × 2
   weight fp   
    <dbl> <chr>
 1   66.5 FP28 
 2   64   FP40 
 3   85   FP21 
 4   53   FP34 
 5   68.5 FP23 
 6   56   FP26 
 7   60.5 FP36 
 8   83.5 FP38 
 9   65   FP25 
10   73.5 FP19 
# ℹ 70 more rows

## Rename
exscidata::dxadata |>
  select(participant:weight) |>
  rename(kg = weight) |>
  relocate(kg, .before = participant)

# A tibble: 80 × 9
      kg participant time  multiple single sex    include   age height
   <dbl> <chr>       <chr> <chr>    <chr>  <chr>  <chr>   <dbl>  <dbl>
 1  66.5 FP28        pre   L        R      female incl     24.5   170 
 2  64   FP40        pre   R        L      female incl     22.1   175 
 3  85   FP21        pre   R        L      male   incl     26.8   184 
 4  53   FP34        pre   R        L      female incl     23.1   164 
 5  68.5 FP23        pre   R        L      male   incl     24.8   176.
 6  56   FP26        pre   R        L      female excl     24.2   163 
 7  60.5 FP36        pre   L        R      female incl     20.5   158 
 8  83.5 FP38        pre   R        L      female incl     20.6   181 
 9  65   FP25        pre   R        L      male   incl     37.4   183 
10  73.5 FP19        pre   L        R      male   incl     22.3   178.
# ℹ 70 more rows

## Mutate
lean_mass <- exscidata::dxadata %>%
  select(participant:weight, lean.whole) |>

  mutate(rel_lean = 100 * ((lean.whole/1000)/weight),
    anewvariable = rnorm(80, 0, 1)) |>
  print()

# A tibble: 80 × 12
   participant time  multiple single sex    include   age height weight
   <chr>       <chr> <chr>    <chr>  <chr>  <chr>   <dbl>  <dbl>  <dbl>
 1 FP28        pre   L        R      female incl     24.5   170    66.5
 2 FP40        pre   R        L      female incl     22.1   175    64  
 3 FP21        pre   R        L      male   incl     26.8   184    85  
 4 FP34        pre   R        L      female incl     23.1   164    53  
 5 FP23        pre   R        L      male   incl     24.8   176.   68.5
 6 FP26        pre   R        L      female excl     24.2   163    56  
 7 FP36        pre   L        R      female incl     20.5   158    60.5
 8 FP38        pre   R        L      female incl     20.6   181    83.5
 9 FP25        pre   R        L      male   incl     37.4   183    65  
10 FP19        pre   L        R      male   incl     22.3   178.   73.5
# ℹ 70 more rows
# ℹ 3 more variables: lean.whole <dbl>, rel_lean <dbl>, anewvariable <dbl>

Pivot data

## Create a small data set containing volume/leg information
leg_volume <- exscidata::dxadata |>
  select(participant, include, single, multiple) |>
  
  pivot_longer(names_to = "volume",#
               values_to = "leg",
               cols = single:multiple) |>
  
  print()

# A tibble: 160 × 4
   participant include volume   leg  
   <chr>       <chr>   <chr>    <chr>
 1 FP28        incl    single   R    
 2 FP28        incl    multiple L    
 3 FP40        incl    single   L    
 4 FP40        incl    multiple R    
 5 FP21        incl    single   L    
 6 FP21        incl    multiple R    
 7 FP34        incl    single   L    
 8 FP34        incl    multiple R    
 9 FP23        incl    single   L    
10 FP23        incl    multiple R    
# ℹ 150 more rows
